…
``` r
# Filter data for Seasons 5 through 10 and episodes with a Star Baker or Winner
star_baker_winner <- merged_data %>%
  filter(series >= 5 & series <= 10, result %in% c("STAR BAKER", "WINNER")) %>%
  select(series, episode, baker, result) %>%
  arrange(series, episode)

# View the reader-friendly table of Star Bakers and Winners for Seasons 5-10
print(star_baker_winner)
```

    ## # A tibble: 60 × 4
    ##    series episode baker   result    
    ##     <dbl>   <dbl> <chr>   <chr>     
    ##  1      5       1 Nancy   STAR BAKER
    ##  2      5       2 Richard STAR BAKER
    ##  3      5       3 Luis    STAR BAKER
    ##  4      5       4 Richard STAR BAKER
    ##  5      5       5 Kate    STAR BAKER
    ##  6      5       6 Chetna  STAR BAKER
    ##  7      5       7 Richard STAR BAKER
    ##  8      5       8 Richard STAR BAKER
    ##  9      5       9 Richard STAR BAKER
    ## 10      5      10 Nancy   WINNER    
    ## # ℹ 50 more rows
…
